{
    "port":81,
    "medium" : {
        "clientId": "",
        "clientSecret": "",
        "authorizationCode": ""
    },
    "trelloKey":"",
    "trelloToken":"",
    "vboxDownload":"https://mega.nz/#!j8xwFCiB!ppi2qvoMmRAwjjGBCHcwDSyvKD0ty0z_hew5CoxiMPU",
    "codePage":"https://gitlab.com/Shinobi-Systems/Shinobi",
    "issuesPage":"https://gitlab.com/Shinobi-Systems/Shinobi/issues",
    "slackInvite":"https://discordapp.com/invite/mdhmvuH",
    "donateLink":"//shinobi.video/docs/donate",
    "paidSupport":"http://billing.place/cart/shinobi/",
    "downloadLink":"https://gitlab.com/Shinobi-Systems/Shinobi",
    "onlineVisitorsURL":"http://free.unmetered.chat/xxxxxxxxxxxxx/xxxxxxx/get/onlineVisitors",
    "googleMapsKey":"xxxxxxxxxxxxxxxxxxxxxxxxxxxx",
    "hostbill":{
        "id":"xxxxxxxxxxxxxxxxxx",
        "key":"xxxxxxxxxxxxxxxxxx"
    },
    "mail":{
        "service": "gmail",
        "auth": {
            "user": "xxxx@xxxxxx.xxx",
            "pass": "xxxxxxxxxxxxxxx"
        }
    },
    "adminIP":[
        "xxx.xxx.xxx.xxx.xxx"
    ]
}
